{
  "0": "десять",
  "1": "одиннадцать",
  "2": "двенадцать",
  "3": "тринадцать",
  "4": "четырнадцать",
  "5": "пятнадцвать",
  "6": "шестнадцать",
  "7": "семнадцать",
  "8": "восемнадцать",
  "9": "девятнадцать"
}